<svg width="20" height="20" viewBox="0 0 20 20" fill="none" xmlns="http://www.w3.org/2000/svg">
<g clip-path="url(#clip0)">
<path d="M10.5891 19.7559L19.7555 10.5894C20.0813 10.2636 20.0813 9.7369 19.7555 9.41109L10.5891 0.244604C10.2633 -0.0812096 9.73659 -0.0812096 9.41077 0.244604L0.244282 9.41109C0.0817849 9.57358 0.000105434 9.7869 0.000105425 10.0003C0.000105415 10.2136 0.0817849 10.4269 0.244282 10.5894L9.41077 19.7559C9.73658 20.0817 10.2632 20.0817 10.5891 19.7559ZM8.92242 12.7443L7.74413 13.9226L3.82171 10.0002L7.74413 6.0778L8.92242 7.25609L7.01164 9.16687L12.9882 9.16687L11.0774 7.25609L12.2557 6.0778L16.1781 10.0002L12.2557 13.9226L11.0774 12.7443L12.9882 10.8336L7.0116 10.8336L8.92242 12.7443Z" fill="#6F92C9"/>
</g>
<defs>
<clipPath id="clip0">
<rect width="20" height="20" fill="white" transform="translate(20) rotate(90)"/>
</clipPath>
</defs>
</svg>
