<svg width="170" height="60" viewBox="0 0 170 60" xmlns="http://www.w3.org/2000/svg">
<path d="M20.2923 9.47412C24.146 9.47412 27.5289 11.2974 29.4607 14.3205L51.7967 0.0140069H39.2588L32.8034 4.24834C29.3596 1.53832 25.0156 0 20.2923 0C9.09775 0 0.0237427 9.11359 0.0237427 20.3075C0.0237427 31.5014 9.09775 40.5961 20.2923 40.5961C27.4565 40.5961 33.751 36.8855 37.3526 31.2737L29.4357 26.2221C28.4523 27.7547 27.0994 29.0156 25.5014 29.8889C23.9034 30.7621 22.1115 31.2197 20.2904 31.2195C14.2852 31.2195 9.41625 26.3518 9.41625 20.3465C9.41625 14.3412 14.287 9.47412 20.2923 9.47412Z" />
<path d="M66.9058 14.3211L63.6733 21.3446L60.4322 14.3211H58.2739L63.6715 26.1989L69.0732 14.3211H66.9058Z" />
<path d="M94.989 26.1989H97.1473L91.7492 14.3235L86.348 26.1989H88.5148L89.3851 24.311H94.117L94.989 26.1989ZM90.2529 22.4195L91.7461 19.1754L93.243 22.4195H90.2529Z" />
<path d="M121.89 14.3211V22.4018C121.89 23.1734 120.754 24.0364 119.236 24.0364C117.717 24.0364 116.581 23.1734 116.581 22.4018V14.3211H114.422V22.4165C114.432 24.5053 116.583 26.1971 119.236 26.1971C121.888 26.1971 124.039 24.5193 124.047 22.4213V14.3217L121.89 14.3211Z" />
<path d="M170 14.3211H166.761H164.601H161.361V16.4806H164.601V26.1989H166.761V16.4806H170V14.3211Z" />
<path d="M143.486 24.0394V14.3211H141.326V26.1989H141.386H149.154V24.0394H143.486Z" />
<path d="M0 59.0572L18.1328 47.5782H51.5458L33.4137 59.0572H0Z" />
</svg>
